   1 0.0813907 5.78138e+15 0.522712
   2 0.81188 43.8696 0.125402
   3 0.402882 1.72586 0.0795827
   4 0.275631 2.89012 0.0954905
   5 0.312194 2.76917 -0.0456077
   6 -0.204714 1.76061 -0.200666
   7 -0.306095 1.61907 -0.427756
   8 -0.490125 1.66111 -0.70761
   9 -0.823976 1.72795 -0.957737
  10 -1.19677 1.76236 -1.14152
  11 -1.4383 1.77675 -1.29671
  12 -1.60936 1.78467 -1.44435
  13 -1.76419 1.78994 -1.58894
  14 -1.91323 1.79361 -1.73167
  15 -2.05895 1.7962 -1.87312
  16 -2.20252 1.79805 -2.01366
  17 -2.34449 1.79938 -2.15355
  18 -2.48542 1.80033 -2.29298
  19 -2.62554 1.80102 -2.43213
  20 -2.76502 1.80151 -2.57109
  21 -2.90479 1.80187 -2.70974
  22 -3.04357 1.80213 -2.84825
  23 -3.18181 1.80232 -2.98703
  24 -3.32127 1.80246 -3.12521
  25 -3.45876 1.80256 -3.264
  26 -3.59796 1.80263 -3.40268
  27 -3.73755 1.80269 -3.5403
  28 -3.87616 1.80273 -3.67843
  29 -4.01428 1.80275 -3.81689
  30 -4.14876 1.80277 -3.95535
  31 -4.28642 1.80279 -4.09356
  32 -4.43459 1.8028 -4.2293
  33 -4.57298 1.80281 -4.35836
  34 -4.70296 1.80281 -4.49736
  35 -4.83328 1.80282 -4.6261
  36 -4.94165 1.80282 -4.76642
  37 -5.08871 1.80282 -4.90871

