   1 0.741 5.78138e+15 -0.676164
   2 0.0250147 8.90399 -1.39952
   3 -0.50349 40.7312 -1.98784
   4 -1.03935 70.325 -2.42802
   5 -1.33966 109.336 -2.81327
   6 -1.63826 174.968 -3.1638
   7 -1.86328 261.351 -3.49718
   8 -2.06084 391.154 -3.81784
   9 -2.24775 570.853 -4.1299
  10 -2.42548 825.335 -4.43093
  11 -2.59786 1178.64 -4.73057
  12 -2.76397 1670.21 -5.0372
  13 -2.92586 2351.07 -5.37962
  14 -3.08382 3294.33 -5.69324
  15 -3.23802 4601.15 -5.84451
  16 -3.38955 6409.4 -6.14554
  17 -3.54007 8915.38 -inf
  18 -3.68621 12383.8 -6.44657
  19 -3.83409 17192.9 -6.22472
  20 -3.97764 23853.5 nan
  21 -4.12178 33055.9 nan
  22 -4.27061 45851.9 nan
  23 -4.40998 63499.6 nan
  24 -4.55074 88033.5 nan
  25 -4.69378 121983 nan
  26 -4.81808 168587 nan
  27 -4.96686 234187 nan
  28 -5.13354 324407 nan

